Canadian Federal Election (2021)
…
# Data Simulation
# Each number represents a riding. 

simulated_data <- tibble(
  "Riding" = 1:338,
  "Party" = sample(
    x = c("Liberal", "Conservative", "Green", "Other", "Bloc Québécois", "New Democratic"), 
    size = 338,
    replace = TRUE
  )
)
simulated_data

# A tibble: 338 × 2
   Riding Party         
    <int> <chr>         
 1      1 Green         
 2      2 Green         
 3      3 Other         
 4      4 Liberal       
 5      5 Other         
 6      6 Other         
 7      7 Other         
 8      8 Bloc Québécois
 9      9 Conservative  
10     10 Liberal       
# ℹ 328 more rows
…
We now clean the elected_candiate column to only show the party and not the candidate name.

clean_data <-
  clean_data |>
  separate(
    col = elected_candidate,
    into = c("Other", "party"),
    sep = "/"
  ) |>
  select(-Other)
clean_data

# A tibble: 338 × 2
   electoral_district_name                                   party       
   <chr>                                                     <chr>       
 1 Avalon                                                    Libéral     
 2 Bonavista--Burin--Trinity                                 Libéral     
 3 Coast of Bays--Central--Notre Dame                        Conservateur
 4 Labrador                                                  Libéral     
 5 Long Range Mountains                                      Libéral     
 6 St. John's East/St. John's-Est                            Libéral     
 7 St. John's South--Mount Pearl/St. John's-Sud--Mount Pearl Libéral     
 8 Cardigan                                                  Libéral     
 9 Charlottetown                                             Libéral     
10 Egmont                                                    Libéral     
# ℹ 328 more rows
…
